module userapp

go 1.19

require (
	github.com/go-micro/cli v1.1.4
	github.com/go-micro/plugins/v4/client/grpc v1.1.0
	github.com/go-micro/plugins/v4/server/grpc v1.2.0
	github.com/go-micro/plugins/v4/wrapper/trace/opentracing v1.2.0
	github.com/go-ozzo/ozzo-validation/v4 v4.3.0
	github.com/joho/godotenv v1.5.1
	github.com/pkg/errors v0.9.1
	github.com/sirupsen/logrus v1.9.0
	go-micro.dev/v4 v4.11.0
	golang.org/x/crypto v0.21.0
	google.golang.org/protobuf v1.28.1
	gorm.io/driver/postgres v1.5.7
	gorm.io/gorm v1.25.10
)

require (
	github.com/HdrHistogram/hdrhistogram-go v1.1.2 // indirect
	github.com/Microsoft/go-winio v0.6.0 // indirect
	github.com/ProtonMail/go-crypto v0.0.0-20220517143526-88bb52951d5b // indirect
	github.com/acomagu/bufpipe v1.0.3 // indirect
	github.com/asaskevich/govalidator v0.0.0-20200108200545-475eaeb16496 // indirect
	github.com/bitly/go-simplejson v0.5.0 // indirect
	github.com/bmizerany/assert v0.0.0-20160611221934-b7ed37b82869 // indirect
	github.com/cpuguy83/go-md2man/v2 v2.0.2 // indirect
	github.com/emirpasic/gods v1.18.1 // indirect
	github.com/evanphx/json-patch/v5 v5.5.0 // indirect
	github.com/felixge/httpsnoop v1.0.1 // indirect
	github.com/fsnotify/fsnotify v1.6.0 // indirect
	github.com/go-acme/lego/v4 v4.4.0 // indirect
	github.com/go-git/gcfg v1.5.0 // indirect
	github.com/go-git/go-billy/v5 v5.3.1 // indirect
	github.com/go-git/go-git/v5 v5.4.2 // indirect
	github.com/gobwas/httphead v0.1.0 // indirect
	github.com/gobwas/pool v0.2.1 // indirect
	github.com/gobwas/ws v1.0.4 // indirect
	github.com/golang/protobuf v1.5.2 // indirect
	github.com/google/uuid v1.3.0 // indirect
	github.com/gorilla/handlers v1.5.1 // indirect
	github.com/imdario/mergo v0.3.13 // indirect
	github.com/jackc/pgpassfile v1.0.0 // indirect
	github.com/jackc/pgservicefile v0.0.0-20221227161230-091c0ba34f0a // indirect
	github.com/jackc/pgx/v5 v5.4.3 // indirect
	github.com/jbenet/go-context v0.0.0-20150711004518-d14ea06fba99 // indirect
	github.com/jinzhu/inflection v1.0.0 // indirect
	github.com/jinzhu/now v1.1.5 // indirect
	github.com/kevinburke/ssh_config v1.2.0 // indirect
	github.com/miekg/dns v1.1.49 // indirect
	github.com/mitchellh/go-homedir v1.1.0 // indirect
	github.com/nxadm/tail v1.4.8 // indirect
	github.com/opentracing/opentracing-go v1.2.0 // indirect
	github.com/oxtoacart/bpool v0.0.0-20190530202638-03653db5a59c // indirect
	github.com/patrickmn/go-cache v2.1.0+incompatible // indirect
	github.com/rogpeppe/go-internal v1.12.0 // indirect
	github.com/russross/blackfriday/v2 v2.1.0 // indirect
	github.com/sergi/go-diff v1.2.0 // indirect
	github.com/uber/jaeger-client-go v2.29.1+incompatible // indirect
	github.com/uber/jaeger-lib v2.4.1+incompatible // indirect
	github.com/urfave/cli/v2 v2.25.7 // indirect
	github.com/xanzy/ssh-agent v0.3.1 // indirect
	github.com/xrash/smetrics v0.0.0-20201216005158-039620a65673 // indirect
	go.uber.org/atomic v1.4.0 // indirect
	golang.org/x/mod v0.9.0 // indirect
	golang.org/x/net v0.23.0 // indirect
	golang.org/x/sync v0.1.0 // indirect
	golang.org/x/sys v0.18.0 // indirect
	golang.org/x/text v0.14.0 // indirect
	golang.org/x/tools v0.7.0 // indirect
	google.golang.org/genproto v0.0.0-20230306155012-7f2fa6fef1f4 // indirect
	google.golang.org/grpc v1.53.0 // indirect
	gopkg.in/tomb.v1 v1.0.0-20141024135613-dd632973f1e7 // indirect
	gopkg.in/warnings.v0 v0.1.2 // indirect
)
